Josh Fangmeier - Politely Scraping Health Insurance Data
…
length(family_prem_res)

[1] 19

With a little bit of rvest and purrr you can see a preview of the table in the webpage, but the results are very messy, with extra columns, blank rows, and offset values.

family_prem_res %>% 
  purrr::pluck(1) %>% 
  read_html() %>% 
  html_nodes(xpath = '/html/body/table[1]') %>% 
  html_table(fill = TRUE, header = FALSE) %>%
  as.data.frame() %>% 
  tibble()

# A tibble: 59 x 18
   X1    X2    X3    X4    X5    X6    X7    X8    X9    X10   X11   X12   X13  
   <chr> <chr> <chr> <chr> <chr> <chr> <chr> <chr> <chr> <chr> <chr> <chr> <chr>
 1 "Tab~ "Tab~ "Tab~ "Tab~ "Tab~ "Tab~ "Tab~ "Tab~ "Tab~ "Tab~ "Tab~ "Tab~ "Tab~
 2 ""    ""    ""    ""    ""    ""    ""    ""    ""    ""    ""    ""    ""   
 3 "Div~ "Tot~ ""    "Les~ ""    "10 ~ ""    "25 ~ ""    "100~ ""    "100~ ""   
 4 "Div~ "Tot~ ""    "Les~ ""    "10 ~ ""    "25 ~ ""    "100~ ""    "100~ ""   
 5 ""    ""    ""    ""    ""    ""    ""    ""    ""    ""    ""    ""    ""   
 6 "Uni~ "6,7~ ""    "6,9~ ""    "6,8~ ""    "6,6~ ""    "6,6~ ""    "6,8~ ""   
 7 "New~ "New~ "New~ "New~ "New~ "New~ "New~ "New~ "New~ "New~ "New~ "New~ "New~
 8 "Mas~ "7,3~ ""    "8,4~ ""    "8,2~ ""    "7,4~ ""    "7,0~ ""    "7,0~ ""   
 9 "New~ "7,5~ ""    "8,2~ ""    "7,3~ ""    "7,7~ ""    "6,9~ ""    "7,6~ ""   
10 "Con~ "7,2~ ""    "7,5~ ""    "7,6~ ""    "7,1~ ""    "7,9~ ""    "7,0~ ""   
# ... with 49 more rows, and 5 more variables: X14 <chr>, X15 <chr>, X16 <chr>,
#   X17 <chr>, X18 <chr>
…
