Josh Fangmeier - Introducing the claimsdb package for teaching and learning
…
You can access details on the variables in each of the tables like in this example with the inpatient table. You can see that this table contains 35 fields, including a beneficiary code to identify members across tables as well as detailed information on each inpatient claim.

schema %>% 
  filter(TABLE == "inpatient") %>% 
  pull(PROPERTIES)

[[1]]
# A tibble: 35 x 3
   VARIABLE                 TYPE    DESCRIPTION                                 
   <chr>                    <chr>   <chr>                                       
 1 DESYNPUF_ID              string  Beneficiary Code                            
 2 CLM_ID                   string  Claim ID                                    
 3 SEGMENT                  numeric Claim Line Segment                          
 4 CLM_FROM_DT              date    Claims start date                           
 5 CLM_THRU_DT              date    Claims end date                             
 6 PRVDR_NUM                string  Provider Institution                        
 7 CLM_PMT_AMT              numeric Claim Payment Amount                        
 8 NCH_PRMRY_PYR_CLM_PD_AMT numeric NCH Primary Payer Claim Paid Amount         
 9 AT_PHYSN_NPI             string  Attending Physician National Provider Ident~
10 OP_PHYSN_NPI             string  Operating Physician National Provider Ident~
# ... with 25 more rows
…
First, a note about working with dates/times in databases

dbplyr is an amazing tool for working with databases, especially if you want to use many functions from the dplyr and tidyr packages. However, it does not currently have SQL translations for all functions in the tidyverse family of packages. For example, the lubridate package’s date and time functions work on local dataframes but cannot be translated to work on remote tables at this time. In the example below, you can see that the lubridate function year() (for parsing the year from a date) works on the local dataframe but generates an error on the remote table with the same data.

bene %>% 
  transmute(
    DESYNPUF_ID,
    BENE_BIRTH_DT,
    BIRTH_YEAR = lubridate::year(BENE_BIRTH_DT)
  )

# A tibble: 998 x 3
   DESYNPUF_ID      BENE_BIRTH_DT BIRTH_YEAR
   <chr>            <date>             <dbl>
 1 001115EAB83B19BB 1939-12-01          1939
 2 0018A1975BC0EE4F 1935-11-01          1935
 3 00E040C6ECE8F878 1932-11-01          1932
 4 014F2C07689C173B 1935-07-01          1935
 5 029A22E4A3AAEE15 1921-05-01          1921
 6 03410742A11DDC52 1943-07-01          1943
 7 03ADA78C0FEF79F4 1923-02-01          1923
 8 040A12AB5EAA444C 1943-10-01          1943
 9 043AAAE41C9A37B7 1924-03-01          1924
10 0507DE00BC6E6CD6 1932-07-01          1932
# ... with 988 more rows
…
# You can use collect() to bring the results into a local dataframe
rx_bene_df <- rx_bene_rmt %>% 
  collect()

rx_bene_df

# A tibble: 500 x 3
   BENE_YEAR DESYNPUF_ID      TOTAL_RX_COST
       <dbl> <chr>                    <dbl>
 1      2008 484FAAB99C7F90F2         10410
 2      2008 1187122DCAD04B48          9300
 3      2008 5199E41C3B2B36AD          9110
 4      2008 801D1702FC0C105F          8210
 5      2008 92158DA24D7A8799          7910
 6      2008 A705B8508EB5747D          7380
 7      2008 A9142A5D9895479C          6780
 8      2008 D20C21DD9F8177D0          6590
 9      2008 08C8E0A0C6EAC884          5860
10      2008 EBE9CC1D92AA56C0          5690
# ... with 490 more rows
…
hyp_ndc_df <- 
  hedis_df %>% 
  filter(`Medication List` == "ACE Inhibitor/ARB Medications") %>% 
  select(
    LIST = `Medication List`,
    PRODUCTID = `NDC Code`
  )

hyp_ndc_df

# A tibble: 3,230 x 2
   LIST                          PRODUCTID  
   <chr>                         <chr>      
 1 ACE Inhibitor/ARB Medications 00093512501
 2 ACE Inhibitor/ARB Medications 00093512505
 3 ACE Inhibitor/ARB Medications 00185005301
 4 ACE Inhibitor/ARB Medications 00185005305
 5 ACE Inhibitor/ARB Medications 00247213730
 6 ACE Inhibitor/ARB Medications 00378044301
 7 ACE Inhibitor/ARB Medications 00781189201
 8 ACE Inhibitor/ARB Medications 13811062810
 9 ACE Inhibitor/ARB Medications 13811062850
10 ACE Inhibitor/ARB Medications 21695032630
# ... with 3,220 more rows
…
hyp_adhere <- CMA4(
  data = pde_hyp_df,
  ID.colname = 'DESYNPUF_ID',
  event.date.colname = 'SRVC_DT',
  event.duration.colname = 'DAYS_SUPLY_NUM',
  date.format = "%Y-%m-%d"
)

hyp_adhere_cma <- hyp_adhere$CMA %>% tibble()

hyp_adhere_cma

# A tibble: 134 x 2
   DESYNPUF_ID         CMA
   <chr>             <dbl>
 1 03ADA78C0FEF79F4 0.0411
 2 040A12AB5EAA444C 0.0411
 3 043AAAE41C9A37B7 0.123 
 4 0D540BEBC45ADCA7 0.164 
 5 0E0A0107787B32AA 0.123 
 6 109D67D114778917 0.123 
 7 10D75CDD5B4AD3B0 0.123 
 8 1183CA4884F8A0A8 0.0274
 9 11C45CF0DDD03ACE 0.0822
10 1226AD9944384B64 0.0411
# ... with 124 more rows
…
